<svg width="32" height="30" viewBox="0 0 32 30" version="1.1" xmlns="http://www.w3.org/2000/svg" xmlns:xlink="http://www.w3.org/1999/xlink">
<g id="Canvas" fill="none">
<g id="noun_773310_cc">
<path id="Vector" d="M 31.8407 10.0587L 30.5296 8.82952C 30.3172 8.63043 29.9733 8.63043 29.7609 8.82952C 29.4141 9.15466 28.8093 9.155 28.4624 8.82918C 28.2889 8.66679 28.1935 8.45071 28.1935 8.22104C 28.1935 7.99138 28.2892 7.7753 28.4624 7.6129C 28.5643 7.51743 28.6215 7.38765 28.6215 7.25243C 28.6215 7.11721 28.5643 6.98777 28.4624 6.89196L 27.5887 6.07318C 27.3847 5.8819 27.0234 5.88224 26.8201 6.07318C 26.4736 6.39832 25.8688 6.39798 25.5223 6.07284C 25.3487 5.91044 25.2534 5.69437 25.2534 5.4647C 25.2534 5.23469 25.3491 5.01862 25.5223 4.85588C 25.6241 4.76041 25.6814 4.63063 25.6814 4.49541C 25.6814 4.36019 25.6241 4.23041 25.5223 4.13494L 24.6489 3.3165C 24.4366 3.11775 24.0926 3.11775 23.8803 3.3165C 23.5335 3.64129 22.9286 3.64129 22.5818 3.31616C 22.2245 2.98083 22.2245 2.43452 22.5818 2.09919C 22.7942 1.9001 22.7942 1.57735 22.5818 1.37826L 21.2703 0.149063C 21.0579 -0.0496875 20.714 -0.0496875 20.5016 0.149063L 15.053 5.25746C 15.0526 5.25779 15.0519 5.2578 15.0515 5.25813C 15.0511 5.25847 15.0512 5.25881 15.0508 5.25949L 0.159093 19.2203C 0.057259 19.3157 -3.4561e-08 19.4455 -3.4561e-08 19.5807C -3.4561e-08 19.7159 0.057259 19.8454 0.159093 19.9412L 1.47061 21.1704C 1.68298 21.3691 2.0269 21.3691 2.23926 21.1704C 2.58608 20.8456 3.19056 20.8456 3.53738 21.1704C 3.89506 21.5061 3.89506 22.052 3.53738 22.3874C 3.32501 22.5861 3.32501 22.9089 3.53738 23.1079L 4.41039 23.9267C 4.62276 24.1258 4.96704 24.1258 5.17868 23.9271C 5.52658 23.6016 6.13106 23.6019 6.47752 23.9271C 6.65111 24.0895 6.74642 24.3055 6.74642 24.5352C 6.74642 24.7652 6.65074 24.9813 6.47752 25.144C 6.37568 25.2395 6.31842 25.3693 6.31842 25.5045C 6.31842 25.6397 6.37568 25.7692 6.47752 25.865L 7.35054 26.6834C 7.5629 26.8825 7.90718 26.8822 8.11882 26.6838C 8.46636 26.3586 9.07084 26.3586 9.41766 26.6838C 9.77498 27.0191 9.77498 27.5654 9.41766 27.9007C 9.20529 28.0998 9.20529 28.4226 9.41766 28.6213L 10.7292 29.8509C 10.831 29.9463 10.9695 30 11.1137 30C 11.2579 30 11.396 29.9463 11.4982 29.8509L 26.3902 15.8897C 26.3902 15.8897 26.3906 15.8894 26.391 15.8894L 26.3913 15.8887L 31.8407 10.78C 32.0531 10.5806 32.0531 10.2578 31.8407 10.0587ZM 11.114 28.7694L 10.5179 28.2106C 10.9455 27.4951 10.835 26.5703 10.1867 25.9625C 9.80832 25.6074 9.30459 25.4118 8.76897 25.4118C 8.41961 25.4118 8.08403 25.495 7.78795 25.6513L 7.57848 25.4549C 7.74519 25.177 7.83398 24.8624 7.83398 24.5349C 7.83398 24.0327 7.62523 23.5608 7.24653 23.2058C 6.86782 22.8508 6.36409 22.6551 5.82846 22.6551C 5.47947 22.6551 5.14389 22.7383 4.84781 22.8943L 4.63762 22.6972C 5.06525 21.9817 4.95472 21.0569 4.30639 20.4488C 3.92768 20.0941 3.42394 19.8984 2.88868 19.8984C 2.53933 19.8984 2.20375 19.9816 1.90767 20.1376L 1.31225 19.5797L 15.4364 6.33852L 25.2382 15.5276L 11.114 28.7694ZM 26.0065 14.8077L 16.2047 5.6186L 20.8854 1.23047L 21.4816 1.78901C 21.0539 2.50485 21.1645 3.42929 21.8128 4.03709C 22.1915 4.39213 22.6956 4.58782 23.2309 4.58782C 23.5802 4.58782 23.9158 4.50458 24.2119 4.34864L 24.4213 4.54501C 24.2546 4.82258 24.1658 5.13719 24.1658 5.4647C 24.1658 5.96684 24.3746 6.43875 24.7533 6.79378C 25.132 7.14881 25.6357 7.3445 26.1714 7.3445C 26.5203 7.3445 26.8559 7.26127 27.1516 7.10532L 27.3615 7.3017C 27.1948 7.57927 27.106 7.89387 27.106 8.22138C 27.106 8.72352 27.3147 9.19543 27.6931 9.55012C 28.0718 9.90549 28.5755 10.1012 29.1115 10.1012C 29.4605 10.1012 29.7964 10.0179 30.0925 9.86167L 30.6876 10.4195L 26.0065 14.8077ZM 5.86687 17.8766C 5.65451 18.0753 5.65451 18.3981 5.86687 18.5972L 12.1621 24.4992C 12.2639 24.5947 12.4024 24.6484 12.5466 24.6484C 12.6908 24.6484 12.8289 24.5947 12.9311 24.4992L 22.1389 15.8666C 22.2408 15.7712 22.298 15.6414 22.298 15.5062C 22.298 15.371 22.2408 15.2415 22.1389 15.1457L 15.8434 9.24435C 15.631 9.04526 15.2871 9.04526 15.0747 9.24435L 5.86687 17.8766ZM 20.9862 15.5062L 12.5466 23.4181L 7.02003 18.237L 15.4592 10.3251L 20.9862 15.5062ZM 9.39664 19.2637C 9.50282 19.3633 9.64198 19.4129 9.78115 19.4129C 9.92031 19.4129 10.0595 19.3633 10.1657 19.2637L 15.7093 14.067C 15.9216 13.8683 15.9216 13.5455 15.7093 13.3464C 15.4969 13.1473 15.153 13.1473 14.9406 13.3464L 9.39664 18.5431C 9.18427 18.7419 9.18427 19.0647 9.39664 19.2637ZM 15.0689 17.0778L 11.4518 20.4688C 11.2394 20.6676 11.2394 20.9907 11.4518 21.1894C 11.558 21.289 11.6971 21.3386 11.8363 21.3386C 11.9755 21.3386 12.1146 21.289 12.2208 21.1894L 15.8379 17.7984C 16.0503 17.5997 16.0503 17.2766 15.8379 17.0778C 15.6252 16.8787 15.2813 16.8787 15.0689 17.0778Z" fill="black"/>
</g>
</g>
</svg>
